(export (version D)
  (design
    (source /home/defcronyke/kicad-projects/my-circuits/moisture-reader/moisture-reader.sch)
    (date "Mon 09 Nov 2020 09:00:46 AM")
    (tool "Eeschema 5.1.8")
    (sheet (number 1) (name /) (tstamps /)
      (title_block
        (title "Moisture Reader")
        (company https://eternalvoid.net)
        (rev 0.1.2)
        (date 2020-11-09)
        (source moisture-reader.sch)
        (comment (number 1) (value "Battery Case with Switch: https://www.aliexpress.com/item/32832684174.html"))
        (comment (number 2) (value "Battery Protection Board: https://www.aliexpress.com/item/4000141681288.html"))
        (comment (number 3) (value "LiFePo4 Battery: https://www.aliexpress.com/item/4001141997998.html"))
        (comment (number 4) (value "Project Page: https://gitlab.com/defcronyke/moisture-reader")))))
  (components
    (comp (ref U1)
      (value 74HC595)
      (footprint Package_DIP:DIP-16_W7.62mm)
      (datasheet http://www.ti.com/lit/ds/symlink/sn74hc595.pdf)
      (libsource (lib 74xx) (part 74HC595) (description "8-bit serial in/out Shift Register 3-State Outputs"))
      (sheetpath (names /) (tstamps /))
      (tstamp 5F9D6DC5))
    (comp (ref U2)
      (value 74HC595)
      (footprint Package_DIP:DIP-16_W7.62mm)
      (datasheet http://www.ti.com/lit/ds/symlink/sn74hc595.pdf)
      (libsource (lib 74xx) (part 74HC595) (description "8-bit serial in/out Shift Register 3-State Outputs"))
      (sheetpath (names /) (tstamps /))
      (tstamp 5F9D9A0C))
    (comp (ref U4)
      (value HDSP-A153)
      (footprint Display_7Segment:KCSC02-105)
      (datasheet https://docs.broadcom.com/docs/AV02-2553EN)
      (libsource (lib Display_Character) (part HDSP-A153) (description "One digit 7 segment red, common cathode"))
      (sheetpath (names /) (tstamps /))
      (tstamp 5F9E86D3))
    (comp (ref R1)
      (value 470)
      (footprint Resistor_SMD:R_0603_1608Metric)
      (datasheet ~)
      (libsource (lib Device) (part R) (description Resistor))
      (sheetpath (names /) (tstamps /))
      (tstamp 5F9FC336))
    (comp (ref R2)
      (value 470)
      (footprint Resistor_SMD:R_0603_1608Metric)
      (datasheet ~)
      (libsource (lib Device) (part R) (description Resistor))
      (sheetpath (names /) (tstamps /))
      (tstamp 5F9FCCE8))
    (comp (ref R4)
      (value 10k)
      (footprint Resistor_SMD:R_0603_1608Metric)
      (datasheet ~)
      (libsource (lib Device) (part R) (description Resistor))
      (sheetpath (names /) (tstamps /))
      (tstamp 5FA33CD9))
    (comp (ref J1)
      (value Conn_01x09_Male)
      (footprint Connector_PinHeader_2.54mm:PinHeader_1x09_P2.54mm_Horizontal)
      (datasheet ~)
      (libsource (lib Connector) (part Conn_01x09_Male) (description "Generic connector, single row, 01x09, script generated (kicad-library-utils/schlib/autogen/connector/)"))
      (sheetpath (names /) (tstamps /))
      (tstamp 5FA4F02A))
    (comp (ref R3)
      (value 10k)
      (footprint Resistor_SMD:R_0603_1608Metric)
      (datasheet ~)
      (libsource (lib Device) (part R) (description Resistor))
      (sheetpath (names /) (tstamps /))
      (tstamp 5FA29A07))
    (comp (ref U3)
      (value HDSP-A153)
      (footprint Display_7Segment:KCSC02-105)
      (datasheet https://docs.broadcom.com/docs/AV02-2553EN)
      (libsource (lib Display_Character) (part HDSP-A153) (description "One digit 7 segment red, common cathode"))
      (sheetpath (names /) (tstamps /))
      (tstamp 5F9E7EB5))
    (comp (ref SW1)
      (value SW_SPST)
      (footprint Button_Switch_SMD:SW_SPST_B3S-1000)
      (datasheet ~)
      (libsource (lib Switch) (part SW_SPST) (description "Single Pole Single Throw (SPST) switch"))
      (sheetpath (names /) (tstamps /))
      (tstamp 5FAA4E64))
    (comp (ref SW2)
      (value SW_SPST)
      (footprint Button_Switch_SMD:SW_SPST_B3S-1000)
      (datasheet ~)
      (libsource (lib Switch) (part SW_SPST) (description "Single Pole Single Throw (SPST) switch"))
      (sheetpath (names /) (tstamps /))
      (tstamp 5FAB55EF)))
  (libparts
    (libpart (lib 74xx) (part 74HC595)
      (aliases
        (alias 74LS595)
        (alias 74HCT595)
        (alias 74AHC595)
        (alias 74AHCT595))
      (description "8-bit serial in/out Shift Register 3-State Outputs")
      (docs http://www.ti.com/lit/ds/symlink/sn74hc595.pdf)
      (footprints
        (fp DIP*W7.62mm*)
        (fp SOIC*3.9x9.9mm*P1.27mm*)
        (fp TSSOP*4.4x5mm*P0.65mm*)
        (fp SOIC*5.3x10.2mm*P1.27mm*)
        (fp SOIC*7.5x10.3mm*P1.27mm*))
      (fields
        (field (name Reference) U)
        (field (name Value) 74HC595))
      (pins
        (pin (num 1) (name QB) (type 3state))
        (pin (num 2) (name QC) (type 3state))
        (pin (num 3) (name QD) (type 3state))
        (pin (num 4) (name QE) (type 3state))
        (pin (num 5) (name QF) (type 3state))
        (pin (num 6) (name QG) (type 3state))
        (pin (num 7) (name QH) (type 3state))
        (pin (num 8) (name GND) (type power_in))
        (pin (num 9) (name QH') (type output))
        (pin (num 10) (name ~SRCLR) (type input))
        (pin (num 11) (name SRCLK) (type input))
        (pin (num 12) (name RCLK) (type input))
        (pin (num 13) (name ~OE) (type input))
        (pin (num 14) (name SER) (type input))
        (pin (num 15) (name QA) (type 3state))
        (pin (num 16) (name VCC) (type power_in))))
    (libpart (lib Connector) (part Conn_01x09_Male)
      (description "Generic connector, single row, 01x09, script generated (kicad-library-utils/schlib/autogen/connector/)")
      (docs ~)
      (footprints
        (fp Connector*:*_1x??_*))
      (fields
        (field (name Reference) J)
        (field (name Value) Conn_01x09_Male))
      (pins
        (pin (num 1) (name Pin_1) (type passive))
        (pin (num 2) (name Pin_2) (type passive))
        (pin (num 3) (name Pin_3) (type passive))
        (pin (num 4) (name Pin_4) (type passive))
        (pin (num 5) (name Pin_5) (type passive))
        (pin (num 6) (name Pin_6) (type passive))
        (pin (num 7) (name Pin_7) (type passive))
        (pin (num 8) (name Pin_8) (type passive))
        (pin (num 9) (name Pin_9) (type passive))))
    (libpart (lib Device) (part R)
      (description Resistor)
      (docs ~)
      (footprints
        (fp R_*))
      (fields
        (field (name Reference) R)
        (field (name Value) R))
      (pins
        (pin (num 1) (name ~) (type passive))
        (pin (num 2) (name ~) (type passive))))
    (libpart (lib Display_Character) (part HDSP-A153)
      (aliases
        (alias HDSP-7503))
      (description "One digit 7 segment red, common cathode")
      (docs https://docs.broadcom.com/docs/AV02-2553EN)
      (footprints
        (fp HDSP?A151*))
      (fields
        (field (name Reference) U)
        (field (name Value) HDSP-A153)
        (field (name Footprint) Display_7Segment:HDSP-A151))
      (pins
        (pin (num 1) (name CC) (type input))
        (pin (num 2) (name F) (type input))
        (pin (num 3) (name G) (type input))
        (pin (num 4) (name E) (type input))
        (pin (num 5) (name D) (type input))
        (pin (num 6) (name CC) (type input))
        (pin (num 7) (name DP) (type input))
        (pin (num 8) (name C) (type input))
        (pin (num 9) (name B) (type input))
        (pin (num 10) (name A) (type input))))
    (libpart (lib Switch) (part SW_SPST)
      (description "Single Pole Single Throw (SPST) switch")
      (docs ~)
      (fields
        (field (name Reference) SW)
        (field (name Value) SW_SPST))
      (pins
        (pin (num 1) (name A) (type passive))
        (pin (num 2) (name B) (type passive)))))
  (libraries
    (library (logical 74xx)
      (uri /usr/share/kicad/library/74xx.lib))
    (library (logical Connector)
      (uri /usr/share/kicad/library/Connector.lib))
    (library (logical Device)
      (uri /usr/share/kicad/library/Device.lib))
    (library (logical Display_Character)
      (uri /usr/share/kicad/library/Display_Character.lib))
    (library (logical Switch)
      (uri /usr/share/kicad/library/Switch.lib)))
  (nets
    (net (code 1) (name SRCLK)
      (node (ref J1) (pin 6))
      (node (ref U2) (pin 11))
      (node (ref U1) (pin 11)))
    (net (code 2) (name RCLK)
      (node (ref U2) (pin 12))
      (node (ref J1) (pin 7))
      (node (ref U1) (pin 12)))
    (net (code 3) (name CALMAX)
      (node (ref SW2) (pin 2))
      (node (ref R4) (pin 2))
      (node (ref J1) (pin 9)))
    (net (code 4) (name SER)
      (node (ref U1) (pin 14))
      (node (ref J1) (pin 5)))
    (net (code 5) (name "Net-(U2-Pad1)")
      (node (ref U3) (pin 2))
      (node (ref U2) (pin 1)))
    (net (code 6) (name "Net-(U2-Pad15)")
      (node (ref U2) (pin 15))
      (node (ref U3) (pin 3)))
    (net (code 7) (name CALMIN)
      (node (ref R3) (pin 2))
      (node (ref SW1) (pin 2))
      (node (ref J1) (pin 8)))
    (net (code 8) (name "Net-(U1-Pad9)")
      (node (ref U1) (pin 9))
      (node (ref U2) (pin 14)))
    (net (code 9) (name VIN)
      (node (ref U2) (pin 16))
      (node (ref U1) (pin 16))
      (node (ref U1) (pin 10))
      (node (ref U2) (pin 10))
      (node (ref SW2) (pin 1))
      (node (ref J1) (pin 3))
      (node (ref J1) (pin 1))
      (node (ref SW1) (pin 1)))
    (net (code 10) (name GND)
      (node (ref U1) (pin 13))
      (node (ref R2) (pin 2))
      (node (ref R1) (pin 2))
      (node (ref R3) (pin 1))
      (node (ref U2) (pin 8))
      (node (ref J1) (pin 4))
      (node (ref U1) (pin 8))
      (node (ref J1) (pin 2))
      (node (ref U2) (pin 13))
      (node (ref R4) (pin 1))
      (node (ref U3) (pin 7))
      (node (ref U4) (pin 7)))
    (net (code 11) (name "Net-(U3-Pad1)")
      (node (ref U3) (pin 1)))
    (net (code 12) (name "Net-(U4-Pad1)")
      (node (ref U4) (pin 1)))
    (net (code 13) (name "Net-(U2-Pad9)")
      (node (ref U2) (pin 9)))
    (net (code 14) (name "Net-(U2-Pad7)")
      (node (ref U2) (pin 7)))
    (net (code 15) (name "Net-(U1-Pad7)")
      (node (ref U1) (pin 7)))
    (net (code 16) (name "Net-(R1-Pad1)")
      (node (ref R1) (pin 1))
      (node (ref U3) (pin 6)))
    (net (code 17) (name "Net-(R2-Pad1)")
      (node (ref R2) (pin 1))
      (node (ref U4) (pin 6)))
    (net (code 18) (name "Net-(U1-Pad15)")
      (node (ref U1) (pin 15))
      (node (ref U4) (pin 3)))
    (net (code 19) (name "Net-(U1-Pad3)")
      (node (ref U4) (pin 5))
      (node (ref U1) (pin 3)))
    (net (code 20) (name "Net-(U1-Pad5)")
      (node (ref U1) (pin 5))
      (node (ref U4) (pin 9)))
    (net (code 21) (name "Net-(U2-Pad2)")
      (node (ref U2) (pin 2))
      (node (ref U3) (pin 4)))
    (net (code 22) (name "Net-(U2-Pad3)")
      (node (ref U2) (pin 3))
      (node (ref U3) (pin 5)))
    (net (code 23) (name "Net-(U2-Pad4)")
      (node (ref U3) (pin 8))
      (node (ref U2) (pin 4)))
    (net (code 24) (name "Net-(U2-Pad5)")
      (node (ref U2) (pin 5))
      (node (ref U3) (pin 9)))
    (net (code 25) (name "Net-(U2-Pad6)")
      (node (ref U2) (pin 6))
      (node (ref U3) (pin 10)))
    (net (code 26) (name "Net-(U1-Pad2)")
      (node (ref U4) (pin 4))
      (node (ref U1) (pin 2)))
    (net (code 27) (name "Net-(U1-Pad1)")
      (node (ref U4) (pin 2))
      (node (ref U1) (pin 1)))
    (net (code 28) (name "Net-(U1-Pad6)")
      (node (ref U1) (pin 6))
      (node (ref U4) (pin 10)))
    (net (code 29) (name "Net-(U1-Pad4)")
      (node (ref U4) (pin 8))
      (node (ref U1) (pin 4)))))