%TF.GenerationSoftware,KiCad,Pcbnew,5.1.8*%
%TF.CreationDate,2020-11-09T19:38:50-05:00*%
%TF.ProjectId,moisture-reader,6d6f6973-7475-4726-952d-726561646572,0.1.2*%
%TF.SameCoordinates,Original*%
%TF.FileFunction,Paste,Top*%
%TF.FilePolarity,Positive*%
%FSLAX46Y46*%
G04 Gerber Fmt 4.6, Leading zero omitted, Abs format (unit mm)*
G04 Created by KiCad (PCBNEW 5.1.8) date 2020-11-09 19:38:50*
%MOMM*%
%LPD*%
G01*
G04 APERTURE LIST*
%ADD10R,1.550000X1.300000*%
%ADD11R,2.800000X0.900000*%
G04 APERTURE END LIST*
D10*
%TO.C,SW2*%
X56345000Y-30770000D03*
X56345000Y-35270000D03*
X64305000Y-35270000D03*
X64305000Y-30770000D03*
%TD*%
%TO.C,SW1*%
X64305000Y-25110000D03*
X64305000Y-20610000D03*
X56345000Y-20610000D03*
X56345000Y-25110000D03*
%TD*%
D11*
%TO.C,U4*%
X71835000Y-28235000D03*
X71835000Y-29675000D03*
X71835000Y-31115000D03*
X71835000Y-32555000D03*
X71835000Y-33995000D03*
X81835000Y-33995000D03*
X81835000Y-32555000D03*
X81835000Y-31115000D03*
X81835000Y-29675000D03*
X81835000Y-28235000D03*
%TD*%
%TO.C,U3*%
X81835000Y-20615000D03*
X81835000Y-22055000D03*
X81835000Y-23495000D03*
X81835000Y-24935000D03*
X81835000Y-26375000D03*
X71835000Y-26375000D03*
X71835000Y-24935000D03*
X71835000Y-23495000D03*
X71835000Y-22055000D03*
X71835000Y-20615000D03*
%TD*%
%TO.C,R1*%
G36*
G01*
X84500000Y-26310000D02*
X84500000Y-25760000D01*
G75*
G02*
X84700000Y-25560000I200000J0D01*
G01*
X85100000Y-25560000D01*
G75*
G02*
X85300000Y-25760000I0J-200000D01*
G01*
X85300000Y-26310000D01*
G75*
G02*
X85100000Y-26510000I-200000J0D01*
G01*
X84700000Y-26510000D01*
G75*
G02*
X84500000Y-26310000I0J200000D01*
G01*
G37*
G36*
G01*
X86150000Y-26310000D02*
X86150000Y-25760000D01*
G75*
G02*
X86350000Y-25560000I200000J0D01*
G01*
X86750000Y-25560000D01*
G75*
G02*
X86950000Y-25760000I0J-200000D01*
G01*
X86950000Y-26310000D01*
G75*
G02*
X86750000Y-26510000I-200000J0D01*
G01*
X86350000Y-26510000D01*
G75*
G02*
X86150000Y-26310000I0J200000D01*
G01*
G37*
%TD*%
%TO.C,R2*%
G36*
G01*
X86150000Y-33930000D02*
X86150000Y-33380000D01*
G75*
G02*
X86350000Y-33180000I200000J0D01*
G01*
X86750000Y-33180000D01*
G75*
G02*
X86950000Y-33380000I0J-200000D01*
G01*
X86950000Y-33930000D01*
G75*
G02*
X86750000Y-34130000I-200000J0D01*
G01*
X86350000Y-34130000D01*
G75*
G02*
X86150000Y-33930000I0J200000D01*
G01*
G37*
G36*
G01*
X84500000Y-33930000D02*
X84500000Y-33380000D01*
G75*
G02*
X84700000Y-33180000I200000J0D01*
G01*
X85100000Y-33180000D01*
G75*
G02*
X85300000Y-33380000I0J-200000D01*
G01*
X85300000Y-33930000D01*
G75*
G02*
X85100000Y-34130000I-200000J0D01*
G01*
X84700000Y-34130000D01*
G75*
G02*
X84500000Y-33930000I0J200000D01*
G01*
G37*
%TD*%
%TO.C,R3*%
G36*
G01*
X51480000Y-26945000D02*
X51480000Y-26395000D01*
G75*
G02*
X51680000Y-26195000I200000J0D01*
G01*
X52080000Y-26195000D01*
G75*
G02*
X52280000Y-26395000I0J-200000D01*
G01*
X52280000Y-26945000D01*
G75*
G02*
X52080000Y-27145000I-200000J0D01*
G01*
X51680000Y-27145000D01*
G75*
G02*
X51480000Y-26945000I0J200000D01*
G01*
G37*
G36*
G01*
X53130000Y-26945000D02*
X53130000Y-26395000D01*
G75*
G02*
X53330000Y-26195000I200000J0D01*
G01*
X53730000Y-26195000D01*
G75*
G02*
X53930000Y-26395000I0J-200000D01*
G01*
X53930000Y-26945000D01*
G75*
G02*
X53730000Y-27145000I-200000J0D01*
G01*
X53330000Y-27145000D01*
G75*
G02*
X53130000Y-26945000I0J200000D01*
G01*
G37*
%TD*%
%TO.C,R4*%
G36*
G01*
X51480000Y-28850000D02*
X51480000Y-28300000D01*
G75*
G02*
X51680000Y-28100000I200000J0D01*
G01*
X52080000Y-28100000D01*
G75*
G02*
X52280000Y-28300000I0J-200000D01*
G01*
X52280000Y-28850000D01*
G75*
G02*
X52080000Y-29050000I-200000J0D01*
G01*
X51680000Y-29050000D01*
G75*
G02*
X51480000Y-28850000I0J200000D01*
G01*
G37*
G36*
G01*
X53130000Y-28850000D02*
X53130000Y-28300000D01*
G75*
G02*
X53330000Y-28100000I200000J0D01*
G01*
X53730000Y-28100000D01*
G75*
G02*
X53930000Y-28300000I0J-200000D01*
G01*
X53930000Y-28850000D01*
G75*
G02*
X53730000Y-29050000I-200000J0D01*
G01*
X53330000Y-29050000D01*
G75*
G02*
X53130000Y-28850000I0J200000D01*
G01*
G37*
%TD*%
M02*
