M48
; DRILL file {KiCad 5.1.8} date Mon Nov  9 19:38:41 2020
; FORMAT={-:-/ absolute / inch / decimal}
; #@! TF.CreationDate,2020-11-09T19:38:41-05:00
; #@! TF.GenerationSoftware,Kicad,Pcbnew,5.1.8
; #@! TF.FileFunction,Plated,1,2,PTH
FMAT,2
INCH
T1C0.0157
T2C0.0315
T3C0.0394
%
G90
G05
T1
X1.2Y-1.175
X1.2Y-1.575
X1.3875Y-1.0875
X1.975Y-1.05
X2.025Y-1.5
X2.1Y-1.175
X2.15Y-1.125
X3.4Y-1.175
T2
X1.15Y-1.35
X1.15Y-1.65
X1.25Y-1.35
X1.25Y-1.65
X1.35Y-1.35
X1.35Y-1.65
X1.45Y-1.35
X1.45Y-1.65
X1.55Y-1.35
X1.55Y-1.65
X1.65Y-1.35
X1.65Y-1.65
X1.75Y-1.35
X1.75Y-1.65
X1.85Y-1.35
X1.85Y-1.65
X1.15Y-0.7
X1.15Y-1.0
X1.25Y-0.7
X1.25Y-1.0
X1.35Y-0.7
X1.35Y-1.0
X1.45Y-0.7
X1.45Y-1.0
X1.55Y-0.7
X1.55Y-1.0
X1.65Y-0.7
X1.65Y-1.0
X1.75Y-0.7
X1.75Y-1.0
X1.85Y-0.7
X1.85Y-1.0
T3
X0.95Y-0.775
X0.95Y-0.875
X0.95Y-0.975
X0.95Y-1.075
X0.95Y-1.175
X0.95Y-1.275
X0.95Y-1.375
X0.95Y-1.475
X0.95Y-1.575
T0
M30
