Drill report for /home/defcronyke/kicad-projects/my-circuits/moisture-reader/moisture-reader.kicad_pcb
Created on Mon 09 Nov 2020 07:38:35 PM

Copper Layer Stackup:
    =============================================================
    L1 :  F.Cu                      front
    L2 :  B.Cu                      back


Drill file 'moisture-reader-PTH.drl' contains
    plated through holes:
    =============================================================
    T1  0.40mm  0.016"  (8 holes)
    T2  0.80mm  0.031"  (32 holes)
    T3  1.00mm  0.039"  (9 holes)

    Total plated holes count 49


Drill file 'moisture-reader-NPTH.drl' contains
    unplated through holes:
    =============================================================

    Total unplated holes count 0
