%TF.GenerationSoftware,KiCad,Pcbnew,5.1.8*%
%TF.CreationDate,2020-11-09T19:38:50-05:00*%
%TF.ProjectId,moisture-reader,6d6f6973-7475-4726-952d-726561646572,0.1.2*%
%TF.SameCoordinates,Original*%
%TF.FileFunction,Legend,Top*%
%TF.FilePolarity,Positive*%
%FSLAX46Y46*%
G04 Gerber Fmt 4.6, Leading zero omitted, Abs format (unit mm)*
G04 Created by KiCad (PCBNEW 5.1.8) date 2020-11-09 19:38:50*
%MOMM*%
%LPD*%
G01*
G04 APERTURE LIST*
%ADD10C,0.120000*%
%ADD11C,0.150000*%
G04 APERTURE END LIST*
D10*
%TO.C,SW2*%
X57095000Y-36250000D02*
X57095000Y-36220000D01*
X57095000Y-29790000D02*
X57095000Y-29820000D01*
X63555000Y-29790000D02*
X63555000Y-29820000D01*
X63555000Y-36220000D02*
X63555000Y-36250000D01*
X57095000Y-34320000D02*
X57095000Y-31720000D01*
X63555000Y-36250000D02*
X57095000Y-36250000D01*
X63555000Y-34320000D02*
X63555000Y-31720000D01*
X63555000Y-29790000D02*
X57095000Y-29790000D01*
%TO.C,SW1*%
X63555000Y-19630000D02*
X63555000Y-19660000D01*
X63555000Y-26090000D02*
X63555000Y-26060000D01*
X57095000Y-26090000D02*
X57095000Y-26060000D01*
X57095000Y-19660000D02*
X57095000Y-19630000D01*
X63555000Y-21560000D02*
X63555000Y-24160000D01*
X57095000Y-19630000D02*
X63555000Y-19630000D01*
X57095000Y-21560000D02*
X57095000Y-24160000D01*
X57095000Y-26090000D02*
X63555000Y-26090000D01*
%TO.C,U1*%
X27880000Y-35450000D02*
X27880000Y-37100000D01*
X48320000Y-35450000D02*
X27880000Y-35450000D01*
X48320000Y-40750000D02*
X48320000Y-35450000D01*
X27880000Y-40750000D02*
X48320000Y-40750000D01*
X27880000Y-39100000D02*
X27880000Y-40750000D01*
X27880000Y-37100000D02*
G75*
G02*
X27880000Y-39100000I0J-1000000D01*
G01*
%TO.C,U4*%
X71775000Y-27545000D02*
X76835000Y-27545000D01*
X81895000Y-34685000D02*
X71775000Y-34685000D01*
%TO.C,U2*%
X48320000Y-20590000D02*
X48320000Y-18940000D01*
X48320000Y-18940000D02*
X27880000Y-18940000D01*
X27880000Y-18940000D02*
X27880000Y-24240000D01*
X27880000Y-24240000D02*
X48320000Y-24240000D01*
X48320000Y-24240000D02*
X48320000Y-22590000D01*
X48320000Y-22590000D02*
G75*
G02*
X48320000Y-20590000I0J1000000D01*
G01*
%TO.C,J1*%
X22690000Y-41335000D02*
X22690000Y-18355000D01*
X22690000Y-18355000D02*
X20030000Y-18355000D01*
X20030000Y-18355000D02*
X20030000Y-41335000D01*
X20030000Y-41335000D02*
X22690000Y-41335000D01*
X20030000Y-40385000D02*
X14030000Y-40385000D01*
X14030000Y-40385000D02*
X14030000Y-39625000D01*
X14030000Y-39625000D02*
X20030000Y-39625000D01*
X20030000Y-40325000D02*
X14030000Y-40325000D01*
X20030000Y-40205000D02*
X14030000Y-40205000D01*
X20030000Y-40085000D02*
X14030000Y-40085000D01*
X20030000Y-39965000D02*
X14030000Y-39965000D01*
X20030000Y-39845000D02*
X14030000Y-39845000D01*
X20030000Y-39725000D02*
X14030000Y-39725000D01*
X23020000Y-40385000D02*
X22690000Y-40385000D01*
X23020000Y-39625000D02*
X22690000Y-39625000D01*
X22690000Y-38735000D02*
X20030000Y-38735000D01*
X20030000Y-37845000D02*
X14030000Y-37845000D01*
X14030000Y-37845000D02*
X14030000Y-37085000D01*
X14030000Y-37085000D02*
X20030000Y-37085000D01*
X23087071Y-37845000D02*
X22690000Y-37845000D01*
X23087071Y-37085000D02*
X22690000Y-37085000D01*
X22690000Y-36195000D02*
X20030000Y-36195000D01*
X20030000Y-35305000D02*
X14030000Y-35305000D01*
X14030000Y-35305000D02*
X14030000Y-34545000D01*
X14030000Y-34545000D02*
X20030000Y-34545000D01*
X23087071Y-35305000D02*
X22690000Y-35305000D01*
X23087071Y-34545000D02*
X22690000Y-34545000D01*
X22690000Y-33655000D02*
X20030000Y-33655000D01*
X20030000Y-32765000D02*
X14030000Y-32765000D01*
X14030000Y-32765000D02*
X14030000Y-32005000D01*
X14030000Y-32005000D02*
X20030000Y-32005000D01*
X23087071Y-32765000D02*
X22690000Y-32765000D01*
X23087071Y-32005000D02*
X22690000Y-32005000D01*
X22690000Y-31115000D02*
X20030000Y-31115000D01*
X20030000Y-30225000D02*
X14030000Y-30225000D01*
X14030000Y-30225000D02*
X14030000Y-29465000D01*
X14030000Y-29465000D02*
X20030000Y-29465000D01*
X23087071Y-30225000D02*
X22690000Y-30225000D01*
X23087071Y-29465000D02*
X22690000Y-29465000D01*
X22690000Y-28575000D02*
X20030000Y-28575000D01*
X20030000Y-27685000D02*
X14030000Y-27685000D01*
X14030000Y-27685000D02*
X14030000Y-26925000D01*
X14030000Y-26925000D02*
X20030000Y-26925000D01*
X23087071Y-27685000D02*
X22690000Y-27685000D01*
X23087071Y-26925000D02*
X22690000Y-26925000D01*
X22690000Y-26035000D02*
X20030000Y-26035000D01*
X20030000Y-25145000D02*
X14030000Y-25145000D01*
X14030000Y-25145000D02*
X14030000Y-24385000D01*
X14030000Y-24385000D02*
X20030000Y-24385000D01*
X23087071Y-25145000D02*
X22690000Y-25145000D01*
X23087071Y-24385000D02*
X22690000Y-24385000D01*
X22690000Y-23495000D02*
X20030000Y-23495000D01*
X20030000Y-22605000D02*
X14030000Y-22605000D01*
X14030000Y-22605000D02*
X14030000Y-21845000D01*
X14030000Y-21845000D02*
X20030000Y-21845000D01*
X23087071Y-22605000D02*
X22690000Y-22605000D01*
X23087071Y-21845000D02*
X22690000Y-21845000D01*
X22690000Y-20955000D02*
X20030000Y-20955000D01*
X20030000Y-20065000D02*
X14030000Y-20065000D01*
X14030000Y-20065000D02*
X14030000Y-19305000D01*
X14030000Y-19305000D02*
X20030000Y-19305000D01*
X23087071Y-20065000D02*
X22690000Y-20065000D01*
X23087071Y-19305000D02*
X22690000Y-19305000D01*
X25400000Y-40005000D02*
X25400000Y-41275000D01*
X25400000Y-41275000D02*
X24130000Y-41275000D01*
%TO.C,U3*%
X81895000Y-27065000D02*
X71775000Y-27065000D01*
X71775000Y-19925000D02*
X76835000Y-19925000D01*
%TO.C,R1*%
X85487742Y-26557500D02*
X85962258Y-26557500D01*
X85487742Y-25512500D02*
X85962258Y-25512500D01*
%TO.C,R2*%
X85487742Y-33132500D02*
X85962258Y-33132500D01*
X85487742Y-34177500D02*
X85962258Y-34177500D01*
%TO.C,R3*%
X52467742Y-27192500D02*
X52942258Y-27192500D01*
X52467742Y-26147500D02*
X52942258Y-26147500D01*
%TO.C,R4*%
X52467742Y-29097500D02*
X52942258Y-29097500D01*
X52467742Y-28052500D02*
X52942258Y-28052500D01*
%TO.C,SW2*%
D11*
X58991666Y-37924761D02*
X59134523Y-37972380D01*
X59372619Y-37972380D01*
X59467857Y-37924761D01*
X59515476Y-37877142D01*
X59563095Y-37781904D01*
X59563095Y-37686666D01*
X59515476Y-37591428D01*
X59467857Y-37543809D01*
X59372619Y-37496190D01*
X59182142Y-37448571D01*
X59086904Y-37400952D01*
X59039285Y-37353333D01*
X58991666Y-37258095D01*
X58991666Y-37162857D01*
X59039285Y-37067619D01*
X59086904Y-37020000D01*
X59182142Y-36972380D01*
X59420238Y-36972380D01*
X59563095Y-37020000D01*
X59896428Y-36972380D02*
X60134523Y-37972380D01*
X60325000Y-37258095D01*
X60515476Y-37972380D01*
X60753571Y-36972380D01*
X61086904Y-37067619D02*
X61134523Y-37020000D01*
X61229761Y-36972380D01*
X61467857Y-36972380D01*
X61563095Y-37020000D01*
X61610714Y-37067619D01*
X61658333Y-37162857D01*
X61658333Y-37258095D01*
X61610714Y-37400952D01*
X61039285Y-37972380D01*
X61658333Y-37972380D01*
%TO.C,SW1*%
X58991666Y-18764761D02*
X59134523Y-18812380D01*
X59372619Y-18812380D01*
X59467857Y-18764761D01*
X59515476Y-18717142D01*
X59563095Y-18621904D01*
X59563095Y-18526666D01*
X59515476Y-18431428D01*
X59467857Y-18383809D01*
X59372619Y-18336190D01*
X59182142Y-18288571D01*
X59086904Y-18240952D01*
X59039285Y-18193333D01*
X58991666Y-18098095D01*
X58991666Y-18002857D01*
X59039285Y-17907619D01*
X59086904Y-17860000D01*
X59182142Y-17812380D01*
X59420238Y-17812380D01*
X59563095Y-17860000D01*
X59896428Y-17812380D02*
X60134523Y-18812380D01*
X60325000Y-18098095D01*
X60515476Y-18812380D01*
X60753571Y-17812380D01*
X61658333Y-18812380D02*
X61086904Y-18812380D01*
X61372619Y-18812380D02*
X61372619Y-17812380D01*
X61277380Y-17955238D01*
X61182142Y-18050476D01*
X61086904Y-18098095D01*
%TO.C,U1*%
X26332380Y-38861904D02*
X27141904Y-38861904D01*
X27237142Y-38814285D01*
X27284761Y-38766666D01*
X27332380Y-38671428D01*
X27332380Y-38480952D01*
X27284761Y-38385714D01*
X27237142Y-38338095D01*
X27141904Y-38290476D01*
X26332380Y-38290476D01*
X27332380Y-37290476D02*
X27332380Y-37861904D01*
X27332380Y-37576190D02*
X26332380Y-37576190D01*
X26475238Y-37671428D01*
X26570476Y-37766666D01*
X26618095Y-37861904D01*
%TO.C,U4*%
X71683095Y-35012380D02*
X71683095Y-35821904D01*
X71730714Y-35917142D01*
X71778333Y-35964761D01*
X71873571Y-36012380D01*
X72064047Y-36012380D01*
X72159285Y-35964761D01*
X72206904Y-35917142D01*
X72254523Y-35821904D01*
X72254523Y-35012380D01*
X73159285Y-35345714D02*
X73159285Y-36012380D01*
X72921190Y-34964761D02*
X72683095Y-35679047D01*
X73302142Y-35679047D01*
%TO.C,U2*%
X48772380Y-22351904D02*
X49581904Y-22351904D01*
X49677142Y-22304285D01*
X49724761Y-22256666D01*
X49772380Y-22161428D01*
X49772380Y-21970952D01*
X49724761Y-21875714D01*
X49677142Y-21828095D01*
X49581904Y-21780476D01*
X48772380Y-21780476D01*
X48867619Y-21351904D02*
X48820000Y-21304285D01*
X48772380Y-21209047D01*
X48772380Y-20970952D01*
X48820000Y-20875714D01*
X48867619Y-20828095D01*
X48962857Y-20780476D01*
X49058095Y-20780476D01*
X49200952Y-20828095D01*
X49772380Y-21399523D01*
X49772380Y-20780476D01*
%TO.C,J1*%
X19411666Y-41727380D02*
X19411666Y-42441666D01*
X19364047Y-42584523D01*
X19268809Y-42679761D01*
X19125952Y-42727380D01*
X19030714Y-42727380D01*
X20411666Y-42727380D02*
X19840238Y-42727380D01*
X20125952Y-42727380D02*
X20125952Y-41727380D01*
X20030714Y-41870238D01*
X19935476Y-41965476D01*
X19840238Y-42013095D01*
%TO.C,U3*%
X71683095Y-18387380D02*
X71683095Y-19196904D01*
X71730714Y-19292142D01*
X71778333Y-19339761D01*
X71873571Y-19387380D01*
X72064047Y-19387380D01*
X72159285Y-19339761D01*
X72206904Y-19292142D01*
X72254523Y-19196904D01*
X72254523Y-18387380D01*
X72635476Y-18387380D02*
X73254523Y-18387380D01*
X72921190Y-18768333D01*
X73064047Y-18768333D01*
X73159285Y-18815952D01*
X73206904Y-18863571D01*
X73254523Y-18958809D01*
X73254523Y-19196904D01*
X73206904Y-19292142D01*
X73159285Y-19339761D01*
X73064047Y-19387380D01*
X72778333Y-19387380D01*
X72683095Y-19339761D01*
X72635476Y-19292142D01*
%TO.C,R1*%
X85558333Y-25057380D02*
X85225000Y-24581190D01*
X84986904Y-25057380D02*
X84986904Y-24057380D01*
X85367857Y-24057380D01*
X85463095Y-24105000D01*
X85510714Y-24152619D01*
X85558333Y-24247857D01*
X85558333Y-24390714D01*
X85510714Y-24485952D01*
X85463095Y-24533571D01*
X85367857Y-24581190D01*
X84986904Y-24581190D01*
X86510714Y-25057380D02*
X85939285Y-25057380D01*
X86225000Y-25057380D02*
X86225000Y-24057380D01*
X86129761Y-24200238D01*
X86034523Y-24295476D01*
X85939285Y-24343095D01*
%TO.C,R2*%
X85558333Y-32677380D02*
X85225000Y-32201190D01*
X84986904Y-32677380D02*
X84986904Y-31677380D01*
X85367857Y-31677380D01*
X85463095Y-31725000D01*
X85510714Y-31772619D01*
X85558333Y-31867857D01*
X85558333Y-32010714D01*
X85510714Y-32105952D01*
X85463095Y-32153571D01*
X85367857Y-32201190D01*
X84986904Y-32201190D01*
X85939285Y-31772619D02*
X85986904Y-31725000D01*
X86082142Y-31677380D01*
X86320238Y-31677380D01*
X86415476Y-31725000D01*
X86463095Y-31772619D01*
X86510714Y-31867857D01*
X86510714Y-31963095D01*
X86463095Y-32105952D01*
X85891666Y-32677380D01*
X86510714Y-32677380D01*
%TO.C,R3*%
X52538333Y-25692380D02*
X52205000Y-25216190D01*
X51966904Y-25692380D02*
X51966904Y-24692380D01*
X52347857Y-24692380D01*
X52443095Y-24740000D01*
X52490714Y-24787619D01*
X52538333Y-24882857D01*
X52538333Y-25025714D01*
X52490714Y-25120952D01*
X52443095Y-25168571D01*
X52347857Y-25216190D01*
X51966904Y-25216190D01*
X52871666Y-24692380D02*
X53490714Y-24692380D01*
X53157380Y-25073333D01*
X53300238Y-25073333D01*
X53395476Y-25120952D01*
X53443095Y-25168571D01*
X53490714Y-25263809D01*
X53490714Y-25501904D01*
X53443095Y-25597142D01*
X53395476Y-25644761D01*
X53300238Y-25692380D01*
X53014523Y-25692380D01*
X52919285Y-25644761D01*
X52871666Y-25597142D01*
%TO.C,R4*%
X52538333Y-30297380D02*
X52205000Y-29821190D01*
X51966904Y-30297380D02*
X51966904Y-29297380D01*
X52347857Y-29297380D01*
X52443095Y-29345000D01*
X52490714Y-29392619D01*
X52538333Y-29487857D01*
X52538333Y-29630714D01*
X52490714Y-29725952D01*
X52443095Y-29773571D01*
X52347857Y-29821190D01*
X51966904Y-29821190D01*
X53395476Y-29630714D02*
X53395476Y-30297380D01*
X53157380Y-29249761D02*
X52919285Y-29964047D01*
X53538333Y-29964047D01*
%TD*%
M02*
